{
  "employes": [
    {
      "id": 1,
      "prenom": "Jo",
      "nomFamille": "Blo",
      "courriel": "joblo@home.com",
      "telephone": "514-444-4444"
    },
    {
      "id": 2,
      "prenom": "Roger",
      "nomFamille": "Brulotte",
      "courriel": "joblo@home.com",
      "telephone": "514-444-4444"
    },
    {
      "id": 3,
      "prenom": "Ben",
      "nomFamille": "Landry",
      "courriel": "joblo@home.com",
      "telephone": "514-444-4444"
    },
    {
      "id": 4,
      "prenom": "Jean",
      "nomFamille": "Duany",
      "courriel": "joblo@home.com",
      "telephone": "514-444-4444"
    },
    {
      "id": 5,
      "prenom": "Carl",
      "nomFamille": "Lavigne",
      "courriel": "joblo@home.com",
      "telephone": "514-444-4444"
    }
  ]
}
